module bitbucket.org/yardengitta/go-hello

require google.golang.org/grpc v1.27.0

require rsc.io/quote v1.5.2

require (
	github.com/mattn/go-colorable v0.0.9
	github.com/naoina/go-stringutil v0.1.0 // indirect
)

go 1.13